KODAQS Academy | Course D2 Survey
…
item_missing_usa <- missing_diag_usa |>
  dplyr::summarise(
    across(everything(), ~ mean(is.na(.x)) * 100)
  ) |>
  tidyr::pivot_longer(
    cols = everything(),
    names_to = "variable",
    values_to = "pct_missing"
  ) |>
  dplyr::arrange(dplyr::desc(pct_missing))

item_missing_usa

# A tibble: 36 × 2
   variable               pct_missing
   <chr>                        <dbl>
 1 CLIM_GOV_science              44.0
 2 CLIM_GOV_trustworthy          44.0
 3 CLIM_GOV_lying                44.0
 4 CLIM_GOV_concerns             43.9
 5 CLIM_GOV_doingenough          43.9
 6 CLIM_GOV_dismisspeople        43.9
 7 CLIM_GOV_futuregens           43.9
 8 CLIM_EMO_anxious              43.9
 9 CLIM_EMO_ashamed              43.9
10 CLIM_EMO_depressed            43.9
# ℹ 26 more rows
…
